Project 1: Exploratory Data Analysis
…
week13_alcohol_global %>% pivot_longer(cols = c("beer_servings", 
    "spirit_servings", "wine_servings"), names_to = "Types of Alcohol Served", 
    values_to = "Number of Alcoholic Servings")

## # A tibble: 579 x 4
##    country   total_litres_of_pure_… `Types of Alcohol Se… `Number of Alcoholic …
##    <fct>                      <dbl> <chr>                                  <int>
##  1 Afghanis…                    0   beer_servings                              0
##  2 Afghanis…                    0   spirit_servings                            0
##  3 Afghanis…                    0   wine_servings                              0
##  4 Albania                      4.9 beer_servings                             89
##  5 Albania                      4.9 spirit_servings                          132
##  6 Albania                      4.9 wine_servings                             54
##  7 Algeria                      0.7 beer_servings                             25
##  8 Algeria                      0.7 spirit_servings                            0
##  9 Algeria                      0.7 wine_servings                             14
## 10 Andorra                     12.4 beer_servings                            245
## # … with 569 more rows

global_mortality %>% pivot_wider(names_from = year, values_from = `Cardiovascular diseases (%)`)

## # A tibble: 6,156 x 60
##    country country_code `Cancers (%)` `Respiratory di… `Diabetes (%)`
##    <chr>   <chr>                <dbl>            <dbl>          <dbl>
##  1 Afghan… AFG                   4.03             2.11           3.83
##  2 Afghan… AFG                   4.05             2.13           3.82
##  3 Afghan… AFG                   4.17             2.21           3.90
##  4 Afghan… AFG                   4.27             2.28           3.97
##  5 Afghan… AFG                   4.26             2.31           3.97
##  6 Afghan… AFG                   4.39             2.41           4.11
##  7 Afghan… AFG                   4.48             2.49           4.21
##  8 Afghan… AFG                   4.45             2.49           4.19
##  9 Afghan… AFG                   4.26             2.41           4.04
## 10 Afghan… AFG                   4.57             2.60           4.34
## # … with 6,146 more rows, and 55 more variables: `Dementia (%)` <dbl>, `Lower
## #   respiratory infections (%)` <dbl>, `Neonatal deaths (%)` <dbl>, `Diarrheal
## #   diseases (%)` <dbl>, `Road accidents (%)` <dbl>, `Liver disease (%)` <dbl>,
## #   `Tuberculosis (%)` <dbl>, `Kidney disease (%)` <dbl>, `Digestive diseases
## #   (%)` <dbl>, `HIV/AIDS (%)` <dbl>, `Suicide (%)` <dbl>, `Malaria (%)` <dbl>,
## #   `Homicide (%)` <dbl>, `Nutritional deficiencies (%)` <dbl>, `Meningitis
## #   (%)` <dbl>, `Protein-energy malnutrition (%)` <dbl>, `Drowning (%)` <dbl>,
## #   `Maternal deaths (%)` <dbl>, `Parkinson disease (%)` <dbl>, `Alcohol
## #   disorders (%)` <dbl>, `Intestinal infectious diseases (%)` <dbl>, `Drug
…
joined_data %>% filter(country == "Congo") %>% select(wine_servings, 
    -country_code)

## # A tibble: 1 x 1
##   wine_servings
##           <int>
## 1             9

joined_data %>% arrange(desc(beer_servings))

## # A tibble: 228 x 39
##    country country_code  year `Cardiovascular… `Cancers (%)` `Respiratory di…
##    <chr>   <chr>        <dbl>            <dbl>         <dbl>            <dbl>
##  1 Namibia NAM           2010             12.6          4.15             2.96
##  2 Czech … CZE           2010             48.0         26.4              2.88
##  3 Gabon   GAB           2010             18.6          8.91             2.24
##  4 Germany DEU           2010             39.7         26.3              4.81
##  5 Lithua… LTU           2010             53.8         19.2              2.13
##  6 Poland  POL           2010             46.0         25.9              3.13
##  7 Venezu… VEN           2010             28.4         16.6              3.05
##  8 Ireland IRL           2010             32.7         29.7              6.86
##  9 Romania ROU           2010             58.0         18.3              2.95
## 10 Belgium BEL           2010             30.7         27.7              6.38
## # … with 218 more rows, and 33 more variables: `Diabetes (%)` <dbl>, `Dementia
## #   (%)` <dbl>, `Lower respiratory infections (%)` <dbl>, `Neonatal deaths
## #   (%)` <dbl>, `Diarrheal diseases (%)` <dbl>, `Road accidents (%)` <dbl>,
## #   `Liver disease (%)` <dbl>, `Tuberculosis (%)` <dbl>, `Kidney disease
## #   (%)` <dbl>, `Digestive diseases (%)` <dbl>, `HIV/AIDS (%)` <dbl>, `Suicide
## #   (%)` <dbl>, `Malaria (%)` <dbl>, `Homicide (%)` <dbl>, `Nutritional
## #   deficiencies (%)` <dbl>, `Meningitis (%)` <dbl>, `Protein-energy
## #   malnutrition (%)` <dbl>, `Drowning (%)` <dbl>, `Maternal deaths (%)` <dbl>,
## #   `Parkinson disease (%)` <dbl>, `Alcohol disorders (%)` <dbl>, `Intestinal
…
joined_data %>% summarize(var_cardiovascular_disease = var(`Cardiovascular diseases (%)`, 
    na.rm = T), n(), n_distinct(spirit_servings))

## # A tibble: 1 x 3
##   var_cardiovascular_disease `n()` `n_distinct(spirit_servings)`
##                        <dbl> <int>                         <int>
## 1                       183.   228                            99

joined_data %>% mutate(beer_proportion = beer_servings/(beer_servings + 
    spirit_servings + wine_servings)) %>% na.omit()

## # A tibble: 155 x 40
##    country country_code  year `Cardiovascular… `Cancers (%)` `Respiratory di…
##    <chr>   <chr>        <dbl>            <dbl>         <dbl>            <dbl>
##  1 Albania ALB           2010             58.4         19.1              3.33
##  2 Algeria DZA           2010             37.1         10.2              3.25
##  3 Andorra AND           2010             32.5         28.0              5.58
##  4 Angola  AGO           2010             10.7          5.01             1.67
##  5 Argent… ARG           2010             34.1         21.5              6.20
##  6 Armenia ARM           2010             49.6         19.5              4.55
##  7 Austra… AUS           2010             32.4         29.4              6.08
##  8 Austria AUT           2010             40.3         25.3              4.13
##  9 Azerba… AZE           2010             52.0         12.4              3.25
## 10 Bahamas BHS           2010             32.5         19.8              1.92
## # … with 145 more rows, and 34 more variables: `Diabetes (%)` <dbl>, `Dementia
## #   (%)` <dbl>, `Lower respiratory infections (%)` <dbl>, `Neonatal deaths
## #   (%)` <dbl>, `Diarrheal diseases (%)` <dbl>, `Road accidents (%)` <dbl>,
## #   `Liver disease (%)` <dbl>, `Tuberculosis (%)` <dbl>, `Kidney disease
## #   (%)` <dbl>, `Digestive diseases (%)` <dbl>, `HIV/AIDS (%)` <dbl>, `Suicide
## #   (%)` <dbl>, `Malaria (%)` <dbl>, `Homicide (%)` <dbl>, `Nutritional
## #   deficiencies (%)` <dbl>, `Meningitis (%)` <dbl>, `Protein-energy
## #   malnutrition (%)` <dbl>, `Drowning (%)` <dbl>, `Maternal deaths (%)` <dbl>,
## #   `Parkinson disease (%)` <dbl>, `Alcohol disorders (%)` <dbl>, `Intestinal
…
